{
  "formatVersion": 1,
  "database": {
    "version": 1,
    "identityHash": "ed66efdaba3f8279d3f3e6b528d3a4d8",
    "entities": [
      {
        "tableName": "User",
        "createSql": "CREATE TABLE IF NOT EXISTS `${TABLE_NAME}` (`mId` INTEGER PRIMARY KEY AUTOINCREMENT NOT NULL, `fullname` TEXT, `sex` TEXT)",
        "fields": [
          {
            "fieldPath": "mId",
            "columnName": "mId",
            "affinity": "INTEGER",
            "notNull": true
          },
          {
            "fieldPath": "mName",
            "columnName": "fullname",
            "affinity": "TEXT",
            "notNull": false
          },
          {
            "fieldPath": "mSex",
            "columnName": "sex",
            "affinity": "TEXT",
            "notNull": false
          }
        ],
        "primaryKey": {
          "columnNames": [
            "mId"
          ],
          "autoGenerate": true
        },
        "indices": [],
        "foreignKeys": []
      }
    ],
    "views": [],
    "setupQueries": [
      "CREATE TABLE IF NOT EXISTS room_master_table (id INTEGER PRIMARY KEY,identity_hash TEXT)",
      "INSERT OR REPLACE INTO room_master_table (id,identity_hash) VALUES(42, 'ed66efdaba3f8279d3f3e6b528d3a4d8')"
    ]
  }
}